{
    "protocol": "groth16",
    "curve": "bn128",
    "nPublic": 109,
    "vk_alpha_1": [
        "20491192805390485299153009773594534940189261866228447918068658471970481763042",
        "9383485363053290200918347156157836566562967994039712273449902621266178545958",
        "1"
    ],
    "vk_beta_2": [
        [
            "6375614351688725206403948262868962793625744043794305715222011528459656738731",
            "4252822878758300859123897981450591353533073413197771768651442665752259397132"
        ],
        [
            "10505242626370262277552901082094356697409835680220590971873171140371331206856",
            "21847035105528745403288232691147584728191162732299865338377159692350059136679"
        ],
        [
            "1",
            "0"
        ]
    ],
    "vk_gamma_2": [
        [
            "10857046999023057135944570762232829481370756359578518086990519993285655852781",
            "11559732032986387107991004021392285783925812861821192530917403151452391805634"
        ],
        [
            "8495653923123431417604973247489272438418190587263600148770280649306958101930",
            "4082367875863433681332203403145435568316851327593401208105741076214120093531"
        ],
        [
            "1",
            "0"
        ]
    ],
    "vk_delta_2": [
        [
            "12434344400157837640696288639069462775905645287074403243160659033630534977268",
            "10149346310151460005213050830019162899009251183260196006157444666971603865554"
        ],
        [
            "1715293962202270487012001805794791191745773544445339812821469674781872377933",
            "15286322065973728285614368233239226665347716960573406996582996175227471463335"
        ],
        [
            "1",
            "0"
        ]
    ],
    "vk_alphabeta_12": [
        [
            [
                "2029413683389138792403550203267699914886160938906632433982220835551125967885",
                "21072700047562757817161031222997517981543347628379360635925549008442030252106"
            ],
            [
                "5940354580057074848093997050200682056184807770593307860589430076672439820312",
                "12156638873931618554171829126792193045421052652279363021382169897324752428276"
            ],
            [
                "7898200236362823042373859371574133993780991612861777490112507062703164551277",
                "7074218545237549455313236346927434013100842096812539264420499035217050630853"
            ]
        ],
        [
            [
                "7077479683546002997211712695946002074877511277312570035766170199895071832130",
                "10093483419865920389913245021038182291233451549023025229112148274109565435465"
            ],
            [
                "4595479056700221319381530156280926371456704509942304414423590385166031118820",
                "19831328484489333784475432780421641293929726139240675179672856274388269393268"
            ],
            [
                "11934129596455521040620786944827826205713621633706285934057045369193958244500",
                "8037395052364110730298837004334506829870972346962140206007064471173334027475"
            ]
        ]
    ],
    "IC": [
        [
            "4979888567199723423754949252722524975801427922861754293340799228824398558992",
            "3798282004674679889664931674889438202538632703348536524536866712802573465974",
            "1"
        ],
        [
            "7283511847005663838040439905809466295666702063390126165268527126621338411976",
            "20118457444474098240645755437994842600559880013452590335326989752423003603463",
            "1"
        ],
        [
            "1046144788430265642040292440303015014668674802814328619853781645793986118686",
            "14129330635037351043813210764358923799765017811813844284072897126000561674403",
            "1"
        ],
        [
            "385804037265411721806891732624851808301533395061495240490507624915938657795",
            "2408708344628247076671408522686595696958494944936443640786579187565177016483",
            "1"
        ],
        [
            "14839578889534663330256872459674095717861195457867407036080089193544566219688",
            "12432110901340604497488766985519152773835962532778412603114202268759715232766",
            "1"
        ],
        [
            "7676075359676416542907728153041215223471721320976280817128510861581834598247",
            "3278394871633225868659738104714824093778284931703314257993620183204909911376",
            "1"
        ],
        [
            "1965108490474515322823865174926970198101041035791240156379916146812696846819",
            "4779846739868546104528586722682732628889680668214435439889578271818571648360",
            "1"
        ],
        [
            "3766480643011816733969880804315688335121940063240187605082588655783900534928",
            "7177322699076582856251950021421548552694706773015431489322267987738562466849",
            "1"
        ],
        [
            "20737603933742490108243526892409133235440725522726515955447742661768835720200",
            "1446258804748016790402782802888625808224503145543084529141618573048963161004",
            "1"
        ],
        [
            "11743355263750714039246429450157470542268674663809993491568839328100823057611",
            "5315958894287031342069691741087186096276570383074776927430824003912165715337",
            "1"
        ],
        [
            "3916441290476260427654623928843795113803894400985764490011051435610595430218",
            "1955686135399899160475213028692360712949680226712333051159822451104867616931",
            "1"
        ],
        [
            "19124409766130661245540441978988994358097028036782776107436983543836641468166",
            "1609942448545693570153196409139251059244693322437835553525333429040149446106",
            "1"
        ],
        [
            "8337675318802411295854006062843395224969472694169900261997430684529732751395",
            "17530038382653026776650008897251060406383021566923029593812532853024812746263",
            "1"
        ],
        [
            "3790795131630422682018018525020667589776302602068370260652512949874593902070",
            "17301390101772453467249240210584896016978735179041775242539500555724243480012",
            "1"
        ],
        [
            "4997038258457838789344967329254047794669024658013739386045666732848893704799",
            "19384805756293865847857494612565225192468638253022132502429594423621980484306",
            "1"
        ],
        [
            "9443119264953137800217068137805109365035738235009256611472451043390713867752",
            "13353846788557969870948676474374989605807476147311359044573176917441552478460",
            "1"
        ],
        [
            "15939161686123219107009579254481018578870563353347343275338837771623836613319",
            "19204478083250305037635147125204441423496649806577358769234287363002873650688",
            "1"
        ],
        [
            "11425609071506580006835921139585254523863170468280138242007607653201917402532",
            "19628529670624329206178126674282825897598279286778819281877738724054933520988",
            "1"
        ],
        [
            "15866879505624020364449661758058533863226768505750105361193978905417287159193",
            "13728941346303403095325749911528624763873411485825652667810470242342614602361",
            "1"
        ],
        [
            "14888797145423971564134804925644469163990421519084039038014937444868972092639",
            "20723578547233636000305288582216545209839172205805417270058220935931260750113",
            "1"
        ],
        [
            "6979344462430503469458603187225885127321072615771652996132975800120566321037",
            "4196314685854754181553727378401830076028600177287973906732454445521524725242",
            "1"
        ],
        [
            "16829975091762669679033211313170006964976274311805488437220306578046918439705",
            "7640988067312163151072447670977724258629643800745544434159819168972190360482",
            "1"
        ],
        [
            "11874132745042276642289852849930422042842854035892325731951935256045704423113",
            "17608731839277109750747897805464863053071171371471742394756944405884690589966",
            "1"
        ],
        [
            "8037112639736112135054390574606146136209655660278811282679349207663771193429",
            "8841672725025957170135149008977254799634986294792961068718545117155775409922",
            "1"
        ],
        [
            "17437001229631855403199088833864341584841372675335501109031821905416254629770",
            "14268122089464467477454140279592390694815488400770722461175968431921342163272",
            "1"
        ],
        [
            "7858624503646636474645958334872252345903439333741423886757973234969253798653",
            "12511128883476346428843062090729845594073753892937231481464117815862333258530",
            "1"
        ],
        [
            "12557058104938891090534314551337952945838405998500127707308896612458921472468",
            "10656524940264557993101034652864546550947662507224411931435186875023079333239",
            "1"
        ],
        [
            "13569888642652940489207232403241136806805305825093233687435248140149688354508",
            "14845168276586784835348179700170900391952908437925477842549465642939763074447",
            "1"
        ],
        [
            "12788336319734368933633975458298575562932926934841123705037636452186679811786",
            "11606729680495023595475726677184000009176029251186702578473334133801057907710",
            "1"
        ],
        [
            "17933040155149877309361185632938709470968006481751704026599055721733169556640",
            "15108696858018385730347380527089723199568649742457987004273099228384060845150",
            "1"
        ],
        [
            "5310007364333878484306704202690945755198665218806499664189613729104550798615",
            "2613851371611915539012835252345065259606237933835607915439051438011913242883",
            "1"
        ],
        [
            "19725078685490133004033506126129991452646832420625676557829446512272008527702",
            "13469928938596691352620816860559928111544691659777547978576294520334596232452",
            "1"
        ],
        [
            "11894384568043701890994508834721186373624497270462257716659427914707797978589",
            "5315507210082618315914127777267079635790391976975614342474718122010354154351",
            "1"
        ],
        [
            "12878442943977975129903730455685840565436067436015974072807076252760650186092",
            "17092435758015515145546323099572194711638582360040049624247955831964648301343",
            "1"
        ],
        [
            "21638386696517653709067827911761382418801062290559868563391624702447235675562",
            "6679980965923031436837256524396128283996816946443676422443151709163696786979",
            "1"
        ],
        [
            "18903235762407504572550327835249058853741389715764468725544978182388952608093",
            "9540458198906303005832362000978778173875737363097057112035685875313977573499",
            "1"
        ],
        [
            "14962461262758874070631046959207800746504089120345804100296317505666485591380",
            "18668686810172488604999913431364910872817251380126609935358886243620884420464",
            "1"
        ],
        [
            "19164779206646835146262610964078192443149639049077246902034751912287844010835",
            "18626969127130446814694615429058663714176205958474039308847911345542490391738",
            "1"
        ],
        [
            "8933177280857679505045169591346680938604130812832875544436174195836323791131",
            "458945663816932146779290064537155024697198358138897662520305022159038674450",
            "1"
        ],
        [
            "6592695092464273104971035154733374174188690970434379610791818366082205393958",
            "13484718560271659854027234218951880013601814272955509573391439292607390750685",
            "1"
        ],
        [
            "125376259813703973374537798324004306998920136839832843264694463171565828098",
            "3774556345161811858629118944888233328893367649103117255252517618160336726865",
            "1"
        ],
        [
            "5114222804591749579958967466106591125959180362806674742063794913163196021566",
            "17653989106724602657569983986496184288485410482401026780653112352770035711478",
            "1"
        ],
        [
            "11721717285400453058199456145672992895651529573517616552402712323686068454111",
            "6270201353114221031231709416305307178830543398782027689590954157496858037259",
            "1"
        ],
        [
            "11549199115480155485687924766263708288493094543347394281194483805641276128094",
            "2205927223113255939666143312018076764996749696408317015039340568753670612827",
            "1"
        ],
        [
            "11052458586463091684050250146390723937045526298191076985503453020240226403770",
            "14392324564512352061107176151196250460088466111043952300342233216969434541625",
            "1"
        ],
        [
            "16464019811824741999748602906887347953998956044077937833811369802669270880329",
            "4098952742911684277148363701109557831124329852538188868533568213290668281284",
            "1"
        ],
        [
            "3246624604384573305496542276733182102558821578273979505412145050468624553274",
            "16482330784192295305547742287732819608921851715940208931261004584100213603529",
            "1"
        ],
        [
            "17611544126062703899011757159274257716531443092647206828047509221654977156235",
            "6654849022575437575168236735300601399952440740210030831488356539342687307815",
            "1"
        ],
        [
            "15235596546500043511312441380267168863633616585184821541048826042021647792652",
            "8097565242533132534999395480460931658299983175254907116583327823419560590702",
            "1"
        ],
        [
            "15638486342559761205058329548148891872563646859652286532105006551968110208149",
            "4474658804792333768452412402201725128742912372638465857768978216457375801767",
            "1"
        ],
        [
            "7844648348466154192048003455400387716818234252122358652977187477822687656086",
            "15865846590045143957629964203209464657884402515482565735867721351558782610125",
            "1"
        ],
        [
            "9518718748266195044847534652575358265314925528011652985004162899058798066368",
            "8944594004976650934741889582026339381328552078818312314151707060391533189355",
            "1"
        ],
        [
            "16214742831242398911184033185248326186557637391526988456097978025122302688611",
            "18881633851423052940742743869552776829931316090012828698661761589719355395968",
            "1"
        ],
        [
            "1571254185911099016383722311320893441694810189583759152208585967542322186767",
            "6159774358563998844360399446019774074771901330373543740491169558020838923970",
            "1"
        ],
        [
            "17195805740342744679762678220641527266984182229926864727878064778472085006921",
            "261529596476354696920279609700425821455339523577836669776469583375306466773",
            "1"
        ],
        [
            "4302193773038570514306835481397144630411319167895578716770740043580471032462",
            "6371020745830563632619606871248870805080306348760320699894620021868160667714",
            "1"
        ],
        [
            "5122583782812860742492468960460635548674599067701410259078370956014682538100",
            "8290199810436214371175581511968884119417574285529535608679822581859533614883",
            "1"
        ],
        [
            "19279833152682930155776686098407472550994394671302981341472320465062884896969",
            "6575227222104453776649620686409972091338051497950191569814280747472699736850",
            "1"
        ],
        [
            "17652642044601453677134958274669763018011636985290894403230066566481262313244",
            "18147296592123821399356995824936159022325276107472002503868544107712409003242",
            "1"
        ],
        [
            "20341718684128223254629872656355851746048750092174557138382739086827141681122",
            "21238020548726344433619507828150839090967587121956665313403432271630078401802",
            "1"
        ],
        [
            "9880518786996180173197660467466501949873025592508386309185412164403883760771",
            "95221758628983493540646519655518454177117951474815906818052991027857071232",
            "1"
        ],
        [
            "4813691672774998815594305903725836452491062883578059183933235047438167943183",
            "9320948272990379180927896400757545661519282381965563148885685276266630814751",
            "1"
        ],
        [
            "5367507352306224738754108488728244048033299443104249817622024945849560212092",
            "2437611184656332337618218883145740088496840277524671417198481970793419175276",
            "1"
        ],
        [
            "11132280840917760718550198922976725710328846191757442053995929696008069868729",
            "16683084807459853406530967918923931173737652596474692342182108101155401149729",
            "1"
        ],
        [
            "7026119357045724266622307459558768144595382527322652831401104968965186118392",
            "76925359320565454270461019467295237790450843239400152149048865748400169994",
            "1"
        ],
        [
            "11212801411996857399543187576018318458589735886553635380699606334451781929667",
            "14030334828445128159473173911051083712590641738468083175823904503298195028113",
            "1"
        ],
        [
            "19363854322727441289807144110106182350571439195280065720799214143239584389636",
            "5663442681594844788571031242203736974353081401494709149822577046087661090713",
            "1"
        ],
        [
            "7685331256517068735605582668753518653098737075501985296914600464521502651040",
            "9170443251789660098369152010778799802877761375978086870348746796553527234956",
            "1"
        ],
        [
            "5253973835842420419821210794247289167448151693724676183881069749599368339674",
            "17427629602169126814602038376233641870810970693200356816536479391746960544287",
            "1"
        ],
        [
            "834469628468414158093054253061504868877607408325840275126787618710404976697",
            "19056236503245302426388063947532791401312946817633670085470058449907595635212",
            "1"
        ],
        [
            "6648574316428509615035526716419588597621011569810708146922854103173610760250",
            "3678772988186039283486406941104353669674539386994443504315128551550968143749",
            "1"
        ],
        [
            "15022127799342334306236943319704065031499641851697393323876611228265311352436",
            "8002708097608111981404974790539067837446359314857627114209048879421046694451",
            "1"
        ],
        [
            "1485600116266060526611125630451431115880590949540063275443873748599291530219",
            "18233169228130700962323764442026881106539015733109952503961171175735047409650",
            "1"
        ],
        [
            "19312859856756019763100831765084743746127052318487707248927241603701183480900",
            "17934741632567622289838743654832397587117810145062746370164335664354231439370",
            "1"
        ],
        [
            "4836451438236791394246072165377509875754335223774188604255371688048680108633",
            "20325128335090354354300084317951902178274388502594700769359303065399775660079",
            "1"
        ],
        [
            "8860303752835966465137332739179121217698928065687978062956256306873180346867",
            "17825176001462023240533262604895954792791132685003481362683544139382136685547",
            "1"
        ],
        [
            "16201527377046297343472631682266528596001045268106070773782037271801464437503",
            "12148686010360748329655089480699921669652774431280079821273821305355488381860",
            "1"
        ],
        [
            "20105313649912442815586612837745298172912907752944096816819686529428434864324",
            "6595026286133998886542840863580190645673306452715606707206926612506605519709",
            "1"
        ],
        [
            "11542053851497920859379367317468361278046788465272734077805366139534691996807",
            "11077500787919143682463051330177375623293285789688575286840820383497243901445",
            "1"
        ],
        [
            "17476453775407397546622521697843534889634113165791797637293844082550603987459",
            "13790219160121927298865105994678741520110511071429544549203764621378457662151",
            "1"
        ],
        [
            "10846203681726999743221950424110116048217258308541304004058062893392390750269",
            "20225512215004175489375657722829936414340258336387971303621420103494754158162",
            "1"
        ],
        [
            "9940925740229959739305539181678246555613419049584304181061965806836172623458",
            "3078481422514969164733076994715315986125339718388580316391288038011088792631",
            "1"
        ],
        [
            "7576514999756690355171962318560434787079865125825435918597506521420767834271",
            "15276999766084159827713596164994705743399146015641550606311112271786191662383",
            "1"
        ],
        [
            "15410034618933037778855459380104476848532657647917402065571573122981652348785",
            "12265139812028550156045601891789443139005101393631726768271057891198918354805",
            "1"
        ],
        [
            "6840400346242316372301880118093520603843457734568999320597423222665692063984",
            "13041826180116108329530327103390227349185869972899987993015335726617164889572",
            "1"
        ],
        [
            "21818139086540845966403968416713507129608554910209653347171095680400254021184",
            "15583648222650739226493552119249789299784312800435468537107605180487258744511",
            "1"
        ],
        [
            "14169035999031613434095584147121073173024824152626342798306287096936344395129",
            "2692181008012070823049399230119046447413779512871329907272628788422511507421",
            "1"
        ],
        [
            "3297783241937713502650276934914194265962565714935558793984454235678789537298",
            "14984837066088041807275687097465798540396251107642530355442874481015580143876",
            "1"
        ],
        [
            "19889001069812773169794073018972363221411386413680732113532091748047201665137",
            "5908566653829471821924722121078702929602090349887898397735662070656999786257",
            "1"
        ],
        [
            "11543047315780168195951909183268102899055955542949581473226937348186456156185",
            "12591209647654037365768254720143893089045448314651013304556965302652665833255",
            "1"
        ],
        [
            "7625907586541422526591660339811113626054332741829307579431444611234126983080",
            "16975481382884752798243915065942561903661375813798320131956659254498754334167",
            "1"
        ],
        [
            "2732618101860471955001267756009173260670426481637290654489634025710486016776",
            "18414719781458901915930828853242271405966537733395587944230547819907741411376",
            "1"
        ],
        [
            "5938620070800430595038140781459481711498492922319434076190873407060652218640",
            "16394859696422627565323864064905128923179253212313472702920039830990630718427",
            "1"
        ],
        [
            "14807385813517435118641591643653947252821123130081678619544611399990589185277",
            "6385820424835025003896841181143911196709355712155137827318442382767960830776",
            "1"
        ],
        [
            "10762934138872335331338684600331239684824234597705688734233549450972306172112",
            "3533528152948664139800463663333235494465288842296890876587622512782313569233",
            "1"
        ],
        [
            "19987964162543458173834608135108599243846470307847531372355987000726436213084",
            "16320208063897361853729145802816787362108864995108666273799614627112237666690",
            "1"
        ],
        [
            "12128849574832656894383628555563506141399466428510249987769477513386041975117",
            "10188717100813788019609975410711047305102001478438755033472289532761285190745",
            "1"
        ],
        [
            "704153050250081659273199730608588106862302972799154046297101714600608288071",
            "3783438399116034584583871946375183432845622521801822547565647736253182585632",
            "1"
        ],
        [
            "10969296469381008810857957232881016290544799671772007487057720710278959230698",
            "1364888552759196121130611420674715700288773470724794460500854656345068772697",
            "1"
        ],
        [
            "5348026496059080604111439631877861133724689922641346511973562453065366932586",
            "11653489727360340503324815042510870662880720831976179776852241263961611727107",
            "1"
        ],
        [
            "12832245778790260728755627813547361002929300412425466525928443341472128341727",
            "19254369528707031149384459234438835897542550798854482120402107837787310130702",
            "1"
        ],
        [
            "10846098440619691478741220204450582868732489251143195143619918048112409308673",
            "10562627203476868979642149173027462350906543480577994458099857484687512491399",
            "1"
        ],
        [
            "7195832648736312719894401088783510362720234633258713056632732619310385120079",
            "12171139613678211637650884579389934103882042886159072211084257866516659082406",
            "1"
        ],
        [
            "15355152823791539910059188895099643903756924469553177064530578028709112601630",
            "16933546030456632176541627994039772373640769675507288683692291986324766482042",
            "1"
        ],
        [
            "16623198353090775493582111930838785841040260075952876755900906849512944006701",
            "9352188491316485051323200753700389026730873974968689382516907702260499826804",
            "1"
        ],
        [
            "6225551002769930954060267772514629361230954725898331152600184295855243706629",
            "17343769277315719372187399805418687870658164267153133826346139955564145401187",
            "1"
        ],
        [
            "6811334117902868855627669797712340871280870273417586125976132240782524357600",
            "1426003958012095531574468833840801854964508146152081591308997303495286118073",
            "1"
        ],
        [
            "4547191921904991257753571465357186917838142299034087004401096402906559564442",
            "2372800152930632662326894579627917270474273507272439386739195768369367532670",
            "1"
        ],
        [
            "16404871422754218485044607670652036920619957428483031642087192526807076959087",
            "7339168369101582113377679096169632991877120526413573887612291221058305622435",
            "1"
        ],
        [
            "21760688279504728650521973978219761975343667323945251533835025033935011663436",
            "6352966333250749932809655598857813284581441593761857763073584968540864812832",
            "1"
        ]
    ]
}